ILP 8/OSZI.CSV

Format,1.0B,
Memory Length,10000,Memory Length,10000,Memory Length,10000,
IntpDistance,0,IntpDistance,0,IntpDistance,0,
Trigger Address,-2251,Trigger Address,-2251,Trigger Address,-2251,
Trigger Level,-3.200E-01,Trigger Level,-3.200E-01,Trigger Level,-3.200E-01,
Source,CH2,Source,CH3,Source,CH4,
Vertical Units,V,Vertical Units,V,Vertical Units,V,
Vertical Units Div,0,Vertical Units Div,0,Vertical Units Div,0,
Vertical Units Extend Div,15,Vertical Units Extend Div,15,Vertical Units Extend Div,15,
Label, ,Label, ,Label, ,
Probe Type,0,Probe Type,0,Probe Type,0,
Probe Ratio,1.000E+00,Probe Ratio,1.000E+00,Probe Ratio,1.000E+00,
Vertical Scale,1.000E+00,Vertical Scale,5.000E-02,Vertical Scale,2.000E+00,
Vertical Position,2.840E+00,Vertical Position,2.000E-01,Vertical Position,-8.000E-02,
Horizontal Units,S,Horizontal Units,S,Horizontal Units,S,
Horizontal Scale,5.000E-04,Horizontal Scale,5.000E-04,Horizontal Scale,5.000E-04,
Horizontal Position,3.625E-03,Horizontal Position,3.625E-03,Horizontal Position,3.625E-03,
Horizontal Mode,Main,Horizontal Mode,Main,Horizontal Mode,Main,
SincET Mode,Real Time,SincET Mode,Real Time,SincET Mode,Real Time,
Sampling Period,5.000E-07,Sampling Period,5.000E-07,Sampling Period,5.000E-07,
Horizontal Old Scale,5.000E-04,Horizontal Old Scale,5.000E-04,Horizontal Old Scale,5.000E-04,
Horizontal Old Position,3.625E-03,Horizontal Old Position,3.625E-03,Horizontal Old Position,3.625E-03,
Firmware,V1.09,Firmware,V1.09,Firmware,V1.09,
Mode,Detail,Mode,Detail,Mode,Detail,
Waveform Data,,Waveform Data,,Waveform Data,,
1.125000e-03,2.720000,1.125000e-03,0.014000,1.125000e-03,1.600000,
1.125500e-03,2.720000,1.125500e-03,0.018000,1.125500e-03,1.600000,
1.126000e-03,2.720000,1.126000e-03,0.010000,1.126000e-03,1.600000,
1.126500e-03,2.720000,1.126500e-03,0.012000,1.126500e-03,1.600000,
1.127000e-03,2.720000,1.127000e-03,0.010000,1.127000e-03,1.600000,
1.127500e-03,2.760000,1.127500e-03,0.006000,1.127500e-03,1.600000,
1.128000e-03,2.720000,1.128000e-03,0.012000,1.128000e-03,1.600000,
1.128500e-03,2.720000,1.128500e-03,0.006000,1.128500e-03,1.600000,
1.129000e-03,2.720000,1.129000e-03,0.012000,1.129000e-03,1.600000,
1.129500e-03,2.720000,1.129500e-03,0.004000,1.129500e-03,1.600000,
1.130000e-03,2.720000,1.130000e-03,0.004000,1.130000e-03,1.600000,
1.130500e-03,2.720000,1.130500e-03,0.010000,1.130500e-03,1.600000,
1.131000e-03,2.720000,1.131000e-03,0.006000,1.131000e-03,1.600000,
1.131500e-03,2.720000,1.131500e-03,0.010000,1.131500e-03,1.600000,
1.132000e-03,2.720000,1.132000e-03,0.010000,1.132000e-03,1.600000,
1.132500e-03,2.720000,1.132500e-03,0.010000,1.132500e-03,1.600000,
1.133000e-03,2.720000,1.133000e-03,0.006000,1.133000e-03,1.600000,
1.133500e-03,2.720000,1.133500e-03,0.006000,1.133500e-03,1.600000,
1.134000e-03,2.720000,1.134000e-03,0.000000,1.134000e-03,1.600000,
1.134500e-03,2.760000,1.134500e-03,0.000000,1.134500e-03,1.600000,
1.135000e-03,2.720000,1.135000e-03,0.004000,1.135000e-03,1.600000,
1.135500e-03,2.720000,1.135500e-03,0.012000,1.135500e-03,1.680000,
1.136000e-03,2.720000,1.136000e-03,0.006000,1.136000e-03,1.600000,
1.136500e-03,2.760000,1.136500e-03,0.010000,1.136500e-03,1.680000,
1.137000e-03,2.720000,1.137000e-03,0.004000,1.137000e-03,1.600000,
1.137500e-03,2.720000,1.137500e-03,0.012000,1.137500e-03,1.680000,
1.138000e-03,2.720000,1.138000e-03,-0.006000,1.138000e-03,1.600000,
1.138500e-03,2.720000,1.138500e-03,0.004000,1.138500e-03,1.600000,
1.139000e-03,2.720000,1.139000e-03,0.012000,1.139000e-03,1.600000,
1.139500e-03,2.720000,1.139500e-03,0.002000,1.139500e-03,1.600000,
1.140000e-03,2.720000,1.140000e-03,0.000000,1.140000e-03,1.680000,
1.140500e-03,2.720000,1.140500e-03,0.004000,1.140500e-03,1.680000,
1.141000e-03,2.720000,1.141000e-03,0.012000,1.141000e-03,1.600000,
1.141500e-03,2.720000,1.141500e-03,0.000000,1.141500e-03,1.680000,
1.142000e-03,2.720000,1.142000e-03,0.012000,1.142000e-03,1.680000,
1.142500e-03,2.720000,1.142500e-03,-0.004000,1.142500e-03,1.680000,
1.143000e-03,2.720000,1.143000e-03,-0.004000,1.143000e-03,1.680000,
1.143500e-03,2.720000,1.143500e-03,0.006000,1.143500e-03,1.680000,
1.144000e-03,2.720000,1.144000e-03,0.002000,1.144000e-03,1.600000,
1.144500e-03,2.720000,1.144500e-03,0.002000,1.144500e-03,1.680000,
1.145000e-03,2.720000,1.145000e-03,0.002000,1.145000e-03,1.680000,
1.145500e-03,2.760000,1.145500e-03,0.002000,1.145500e-03,1.680000,
1.146000e-03,2.720000,1.146000e-03,0.000000,1.146000e-03,1.680000,
1.146500e-03,2.720000,1.146500e-03,0.000000,1.146500e-03,1.680000,
1.147000e-03,2.720000,1.147000e-03,0.004000,1.147000e-03,1.680000,
1.147500e-03,2.720000,1.147500e-03,-0.008000,1.147500e-03,1.680000,
1.148000e-03,2.720000,1.148000e-03,0.002000,1.148000e-03,1.680000,
1.148500e-03,2.720000,1.148500e-03,0.000000,1.148500e-03,1.680000,
1.149000e-03,2.760000,1.149000e-03,0.002000,1.149000e-03,1.680000,
1.149500e-03,2.720000,1.149500e-03,0.004000,1.149500e-03,1.680000,
1.150000e-03,2.720000,1.150000e-03,0.002000,1.150000e-03,1.680000,
1.150500e-03,2.760000,1.150500e-03,-0.004000,1.150500e-03,1.680000,
1.151000e-03,2.720000,1.151000e-03,-0.004000,1.151000e-03,1.680000,
1.151500e-03,2.760000,1.151500e-03,0.002000,1.151500e-03,1.680000,
1.152000e-03,2.720000,1.152000e-03,0.002000,1.152000e-03,1.680000,
1.152500e-03,2.720000,1.152500e-03,-0.004000,1.152500e-03,1.680000,
1.153000e-03,2.720000,1.153000e-03,0.002000,1.153000e-03,1.680000,
1.153500e-03,2.720000,1.153500e-03,0.000000,1.153500e-03,1.680000,
1.154000e-03,2.720000,1.154000e-03,0.002000,1.154000e-03,1.680000,
1.154500e-03,2.760000,1.154500e-03,0.000000,1.154500e-03,1.680000,
1.155000e-03,2.720000,1.155000e-03,0.000000,1.155000e-03,1.680000,
1.155500e-03,2.720000,1.155500e-03,0.004000,1.155500e-03,1.680000,
1.156000e-03,2.720000,1.156000e-03,-0.004000,1.156000e-03,1.680000,
1.156500e-03,2.760000,1.156500e-03,0.002000,1.156500e-03,1.680000,
1.157000e-03,2.760000,1.157000e-03,0.004000,1.157000e-03,1.680000,
1.157500e-03,2.720000,1.157500e-03,0.002000,1.157500e-03,1.680000,
1.158000e-03,2.720000,1.158000e-03,0.002000,1.158000e-03,1.680000,
1.158500e-03,2.760000,1.158500e-03,-0.004000,1.158500e-03,1.680000,
1.159000e-03,2.760000,1.159000e-03,-0.006000,1.159000e-03,1.680000,
1.159500e-03,2.760000,1.159500e-03,-0.004000,1.159500e-03,1.680000,
1.160000e-03,2.720000,1.160000e-03,0.000000,1.160000e-03,1.680000,
1.160500e-03,2.720000,1.160500e-03,-0.004000,1.160500e-03,1.680000,
1.161000e-03,2.720000,1.161000e-03,-0.008000,1.161000e-03,1.680000,
1.161500e-03,2.720000,1.161500e-03,-0.004000,1.161500e-03,1.680000,
1.162000e-03,2.760000,1.162000e-03,-0.006000,1.162000e-03,1.680000,
1.162500e-03,2.720000,1.162500e-03,0.004000,1.162500e-03,1.680000,
1.163000e-03,2.760000,1.163000e-03,-0.006000,1.163000e-03,1.680000,
1.163500e-03,2.720000,1.163500e-03,-0.004000,1.163500e-03,1.680000,
1.164000e-03,2.760000,1.164000e-03,-0.014000,1.164000e-03,1.680000,
1.164500e-03,2.760000,1.164500e-03,-0.004000,1.164500e-03,1.680000,
1.165000e-03,2.760000,1.165000e-03,-0.008000,1.165000e-03,1.680000,
1.165500e-03,2.720000,1.165500e-03,0.000000,1.165500e-03,1.680000,
1.166000e-03,2.720000,1.166000e-03,-0.014000,1.166000e-03,1.680000,
1.166500e-03,2.760000,1.166500e-03,-0.004000,1.166500e-03,1.680000,
1.167000e-03,2.720000,1.167000e-03,-0.004000,1.167000e-03,1.680000,
1.167500e-03,2.760000,1.167500e-03,-0.014000,1.167500e-03,1.680000,
1.168000e-03,2.760000,1.168000e-03,-0.004000,1.168000e-03,1.680000,
1.168500e-03,2.760000,1.168500e-03,-0.004000,1.168500e-03,1.680000,
1.169000e-03,2.760000,1.169000e-03,-0.008000,1.169000e-03,1.680000,
1.169500e-03,2.720000,1.169500e-03,-0.008000,1.169500e-03,1.680000,
1.170000e-03,2.720000,1.170000e-03,0.002000,1.170000e-03,1.680000,
1.170500e-03,2.720000,1.170500e-03,-0.008000,1.170500e-03,1.680000,
1.171000e-03,2.760000,1.171000e-03,-0.006000,1.171000e-03,1.680000,
1.171500e-03,2.760000,1.171500e-03,-0.008000,1.171500e-03,1.680000,
1.172000e-03,2.760000,1.172000e-03,-0.006000,1.172000e-03,1.680000,
1.172500e-03,2.720000,1.172500e-03,-0.014000,1.172500e-03,1.680000,
1.173000e-03,2.720000,1.173000e-03,-0.014000,1.173000e-03,1.680000,
1.173500e-03,2.720000,1.173500e-03,-0.016000,1.173500e-03,1.680000,
1.174000e-03,2.760000,1.174000e-03,-0.012000,1.174000e-03,1.680000,
1.174500e-03,2.760000,1.174500e-03,-0.008000,1.174500e-03,1.680000,
1.175000e-03,2.720000,1.175000e-03,-0.014000,1.175000e-03,1.680000,
1.175500e-03,2.720000,1.175500e-03,-0.004000,1.175500e-03,1.680000,
1.176000e-03,2.720000,1.176000e-03,-0.012000,1.176000e-03,1.680000,
1.176500e-03,2.720000,1.176500e-03,-0.012000,1.176500e-03,1.680000,
1.177000e-03,2.720000,1.177000e-03,-0.012000,1.177000e-03,1.680000,
1.177500e-03,2.760000,1.177500e-03,-0.020000,1.177500e-03,1.760000,
1.178000e-03,2.720000,1.178000e-03,-0.004000,1.178000e-03,1.760000,
1.178500e-03,2.720000,1.178500e-03,-0.012000,1.178500e-03,1.760000,
1.179000e-03,2.720000,1.179000e-03,-0.020000,1.179000e-03,1.680000,
1.179500e-03,2.720000,1.179500e-03,-0.004000,1.179500e-03,1.760000,
1.180000e-03,2.720000,1.180000e-03,-0.014000,1.180000e-03,1.760000,
1.180500e-03,2.720000,1.180500e-03,-0.012000,1.180500e-03,1.760000,
1.181000e-03,2.720000,1.181000e-03,-0.008000,1.181000e-03,1.680000,
1.181500e-03,2.720000,1.181500e-03,-0.006000,1.181500e-03,1.680000,
1.182000e-03,2.720000,1.182000e-03,-0.016000,1.182000e-03,1.760000,
1.182500e-03,2.760000,1.182500e-03,-0.012000,1.182500e-03,1.760000,
1.183000e-03,2.760000,1.183000e-03,-0.008000,1.183000e-03,1.760000,
1.183500e-03,2.760000,1.183500e-03,-0.014000,1.183500e-03,1.760000,
1.184000e-03,2.760000,1.184000e-03,-0.022000,1.184000e-03,1.760000,
1.184500e-03,2.720000,1.184500e-03,-0.012000,1.184500e-03,1.760000,
1.185000e-03,2.720000,1.185000e-03,-0.016000,1.185000e-03,1.760000,
1.185500e-03,2.720000,1.185500e-03,-0.020000,1.185500e-03,1.760000,
1.186000e-03,2.720000,1.186000e-03,-0.012000,1.186000e-03,1.760000,
1.186500e-03,2.760000,1.186500e-03,-0.020000,1.186500e-03,1.760000,
1.187000e-03,2.720000,1.187000e-03,-0.016000,1.187000e-03,1.760000,
1.187500e-03,2.720000,1.187500e-03,-0.016000,1.187500e-03,1.760000,
1.188000e-03,2.720000,1.188000e-03,-0.016000,1.188000e-03,1.760000,
1.188500e-03,2.720000,1.188500e-03,-0.016000,1.188500e-03,1.760000,
1.189000e-03,2.720000,1.189000e-03,-0.004000,1.189000e-03,1.760000,
1.189500e-03,2.760000,1.189500e-03,-0.012000,1.189500e-03,1.760000,
1.190000e-03,2.720000,1.190000e-03,-0.022000,1.190000e-03,1.760000,
1.190500e-03,2.760000,1.190500e-03,-0.012000,1.190500e-03,1.760000,
1.191000e-03,2.760000,1.191000e-03,-0.020000,1.191000e-03,1.760000,
1.191500e-03,2.720000,1.191500e-03,-0.016000,1.191500e-03,1.760000,
1.192000e-03,2.720000,1.192000e-03,-0.008000,1.192000e-03,1.760000,
1.192500e-03,2.760000,1.192500e-03,-0.008000,1.192500e-03,1.760000,
1.193000e-03,2.720000,1.193000e-03,-0.016000,1.193000e-03,1.760000,
1.193500e-03,2.760000,1.193500e-03,-0.016000,1.193500e-03,1.760000,
1.194000e-03,2.720000,1.194000e-03,-0.020000,1.194000e-03,1.760000,
1.194500e-03,2.720000,1.194500e-03,-0.016000,1.194500e-03,1.760000,
1.195000e-03,2.720000,1.195000e-03,-0.008000,1.195000e-03,1.760000,
1.195500e-03,2.720000,1.195500e-03,-0.004000,1.195500e-03,1.760000,
1.196000e-03,2.720000,1.196000e-03,-0.012000,1.196000e-03,1.760000,
1.196500e-03,2.720000,1.196500e-03,-0.014000,1.196500e-03,1.760000,
1.197000e-03,2.720000,1.197000e-03,-0.020000,1.197000e-03,1.760000,
1.197500e-03,2.720000,1.197500e-03,-0.012000,1.197500e-03,1.760000,
1.198000e-03,2.720000,1.198000e-03,-0.012000,1.198000e-03,1.760000,
1.198500e-03,2.720000,1.198500e-03,-0.014000,1.198500e-03,1.760000,
1.199000e-03,2.720000,1.199000e-03,-0.024000,1.199000e-03,1.760000,
1.199500e-03,2.720000,1.199500e-03,-0.020000,1.199500e-03,1.760000,
1.200000e-03,2.720000,1.200000e-03,-0.014000,1.200000e-03,1.760000,
1.200500e-03,2.760000,1.200500e-03,-0.016000,1.200500e-03,1.760000,
1.201000e-03,2.720000,1.201000e-03,-0.016000,1.201000e-03,1.760000,
1.201500e-03,2.760000,1.201500e-03,-0.020000,1.201500e-03,1.760000,
1.202000e-03,2.720000,1.202000e-03,-0.020000,1.202000e-03,1.760000,
1.202500e-03,2.760000,1.202500e-03,-0.028000,1.202500e-03,1.760000,
1.203000e-03,2.720000,1.203000e-03,-0.008000,1.203000e-03,1.760000,
1.203500e-03,2.720000,1.203500e-03,-0.020000,1.203500e-03,1.760000,
1.204000e-03,2.720000,1.204000e-03,-0.014000,1.204000e-03,1.760000,
1.204500e-03,2.720000,1.204500e-03,-0.032000,1.204500e-03,1.760000,
1.205000e-03,2.760000,1.205000e-03,-0.022000,1.205000e-03,1.760000,
1.205500e-03,2.720000,1.205500e-03,-0.016000,1.205500e-03,1.760000,
1.206000e-03,2.720000,1.206000e-03,-0.014000,1.206000e-03,1.760000,
1.206500e-03,2.720000,1.206500e-03,-0.022000,1.206500e-03,1.760000,
1.207000e-03,2.720000,1.207000e-03,-0.022000,1.207000e-03,1.760000,
1.207500e-03,2.720000,1.207500e-03,-0.022000,1.207500e-03,1.760000,
1.208000e-03,2.760000,1.208000e-03,-0.022000,1.208000e-03,1.760000,
1.208500e-03,2.720000,1.208500e-03,-0.016000,1.208500e-03,1.760000,
1.209000e-03,2.720000,1.209000e-03,-0.020000,1.209000e-03,1.760000,
1.209500e-03,2.720000,1.209500e-03,-0.024000,1.209500e-03,1.760000,
1.210000e-03,2.760000,1.210000e-03,-0.020000,1.210000e-03,1.760000,
1.210500e-03,2.760000,1.210500e-03,-0.014000,1.210500e-03,1.760000,
1.211000e-03,2.720000,1.211000e-03,-0.014000,1.211000e-03,1.760000,
1.211500e-03,2.720000,1.211500e-03,-0.030000,1.211500e-03,1.760000,
1.212000e-03,2.720000,1.212000e-03,-0.024000,1.212000e-03,1.760000,
1.212500e-03,2.720000,1.212500e-03,-0.014000,1.212500e-03,1.760000,
1.213000e-03,2.720000,1.213000e-03,-0.014000,1.213000e-03,1.760000,
1.213500e-03,2.760000,1.213500e-03,-0.016000,1.213500e-03,1.760000,
1.214000e-03,2.720000,1.214000e-03,-0.012000,1.214000e-03,1.760000,
1.214500e-03,2.760000,1.214500e-03,-0.008000,1.214500e-03,1.760000,
1.215000e-03,2.720000,1.215000e-03,-0.024000,1.215000e-03,1.760000,
1.215500e-03,2.760000,1.215500e-03,-0.016000,1.215500e-03,1.760000,
1.216000e-03,2.760000,1.216000e-03,-0.024000,1.216000e-03,1.760000,
1.216500e-03,2.720000,1.216500e-03,-0.024000,1.216500e-03,1.760000,
1.217000e-03,2.720000,1.217000e-03,-0.030000,1.217000e-03,1.760000,
1.217500e-03,2.720000,1.217500e-03,-0.012000,1.217500e-03,1.760000,
1.218000e-03,2.720000,1.218000e-03,-0.024000,1.218000e-03,1.760000,
1.218500e-03,2.720000,1.218500e-03,-0.024000,1.218500e-03,1.760000,
1.219000e-03,2.720000,1.219000e-03,-0.014000,1.219000e-03,1.760000,
1.219500e-03,2.720000,1.219500e-03,-0.028000,1.219500e-03,1.840000,
1.220000e-03,2.720000,1.220000e-03,-0.028000,1.220000e-03,1.840000,
1.220500e-03,2.720000,1.220500e-03,-0.016000,1.220500e-03,1.840000,
1.221000e-03,2.720000,1.221000e-03,-0.028000,1.221000e-03,1.840000,
1.221500e-03,2.720000,1.221500e-03,-0.020000,1.221500e-03,1.840000,
1.222000e-03,2.720000,1.222000e-03,-0.008000,1.222000e-03,1.840000,
1.222500e-03,2.720000,1.222500e-03,-0.028000,1.222500e-03,1.840000,
1.223000e-03,2.760000,1.223000e-03,-0.024000,1.223000e-03,1.840000,
1.223500e-03,2.720000,1.223500e-03,-0.020000,1.223500e-03,1.760000,
1.224000e-03,2.720000,1.224000e-03,-0.014000,1.224000e-03,1.840000,
1.224500e-03,2.720000,1.224500e-03,-0.020000,1.224500e-03,1.840000,
1.225000e-03,2.720000,1.225000e-03,-0.024000,1.225000e-03,1.840000,
1.225500e-03,2.720000,1.225500e-03,-0.020000,1.225500e-03,1.840000,
1.226000e-03,2.760000,1.226000e-03,-0.022000,1.226000e-03,1.840000,
1.226500e-03,2.760000,1.226500e-03,-0.016000,1.226500e-03,1.840000,
1.227000e-03,2.760000,1.227000e-03,-0.006000,1.227000e-03,1.840000,
1.227500e-03,2.760000,1.227500e-03,-0.028000,1.227500e-03,1.840000,
1.228000e-03,2.760000,1.228000e-03,-0.022000,1.228000e-03,1.840000,
1.228500e-03,2.760000,1.228500e-03,-0.024000,1.228500e-03,1.840000,
1.229000e-03,2.720000,1.229000e-03,-0.028000,1.229000e-03,1.840000,
1.229500e-03,2.720000,1.229500e-03,-0.030000,1.229500e-03,1.840000,
1.230000e-03,2.720000,1.230000e-03,-0.032000,1.230000e-03,1.840000,
1.230500e-03,2.760000,1.230500e-03,-0.020000,1.230500e-03,1.840000,
1.231000e-03,2.760000,1.231000e-03,-0.014000,1.231000e-03,1.840000,
1.231500e-03,2.720000,1.231500e-03,-0.014000,1.231500e-03,1.840000,
1.232000e-03,2.720000,1.232000e-03,-0.030000,1.232000e-03,1.840000,
1.232500e-03,2.720000,1.232500e-03,-0.024000,1.232500e-03,1.840000,
1.233000e-03,2.720000,1.233000e-03,-0.022000,1.233000e-03,1.840000,
1.233500e-03,2.720000,1.233500e-03,-0.030000,1.233500e-03,1.840000,
1.234000e-03,2.720000,1.234000e-03,-0.024000,1.234000e-03,1.840000,
1.234500e-03,2.720000,1.234500e-03,-0.022000,1.234500e-03,1.840000,
1.235000e-03,2.720000,1.235000e-03,-0.028000,1.235000e-03,1.840000,
1.235500e-03,2.720000,1.235500e-03,-0.024000,1.235500e-03,1.840000,
1.236000e-03,2.760000,1.236000e-03,-0.016000,1.236000e-03,1.840000,
1.236500e-03,2.720000,1.236500e-03,-0.020000,1.236500e-03,1.840000,
1.237000e-03,2.720000,1.237000e-03,-0.028000,1.237000e-03,1.840000,
1.237500e-03,2.720000,1.237500e-03,-0.024000,1.237500e-03,1.840000,
1.238000e-03,2.760000,1.238000e-03,-0.022000,1.238000e-03,1.840000,
1.238500e-03,2.760000,1.238500e-03,-0.022000,1.238500e-03,1.840000,
1.239000e-03,2.760000,1.239000e-03,-0.032000,1.239000e-03,1.840000,
1.239500e-03,2.720000,1.239500e-03,-0.012000,1.239500e-03,1.840000,
1.240000e-03,2.720000,1.240000e-03,-0.028000,1.240000e-03,1.840000,
1.240500e-03,2.720000,1.240500e-03,-0.012000,1.240500e-03,1.840000,
1.241000e-03,2.720000,1.241000e-03,-0.032000,1.241000e-03,1.840000,
1.241500e-03,2.720000,1.241500e-03,-0.016000,1.241500e-03,1.840000,
1.242000e-03,2.760000,1.242000e-03,-0.024000,1.242000e-03,1.840000,
1.242500e-03,2.720000,1.242500e-03,-0.016000,1.242500e-03,1.840000,
1.243000e-03,2.720000,1.243000e-03,-0.024000,1.243000e-03,1.840000,
1.243500e-03,2.720000,1.243500e-03,-0.036000,1.243500e-03,1.840000,
1.244000e-03,2.720000,1.244000e-03,-0.016000,1.244000e-03,1.840000,
1.244500e-03,2.720000,1.244500e-03,-0.024000,1.244500e-03,1.840000,
1.245000e-03,2.720000,1.245000e-03,-0.022000,1.245000e-03,1.840000,
1.245500e-03,2.720000,1.245500e-03,-0.012000,1.245500e-03,1.840000,
1.246000e-03,2.720000,1.246000e-03,-0.022000,1.246000e-03,1.840000,
1.246500e-03,2.720000,1.246500e-03,-0.016000,1.246500e-03,1.840000,
1.247000e-03,2.720000,1.247000e-03,-0.038000,1.247000e-03,1.840000,
1.247500e-03,2.720000,1.247500e-03,-0.020000,1.247500e-03,1.840000,
1.248000e-03,2.720000,1.248000e-03,-0.020000,1.248000e-03,1.840000,
1.248500e-03,2.720000,1.248500e-03,-0.024000,1.248500e-03,1.840000,
1.249000e-03,2.720000,1.249000e-03,-0.032000,1.249000e-03,1.840000,
1.249500e-03,2.720000,1.249500e-03,-0.028000,1.249500e-03,1.840000,
1.250000e-03,2.720000,1.250000e-03,-0.024000,1.250000e-03,1.840000,
1.250500e-03,2.760000,1.250500e-03,-0.020000,1.250500e-03,1.840000,
1.251000e-03,2.760000,1.251000e-03,-0.020000,1.251000e-03,1.840000,
1.251500e-03,2.720000,1.251500e-03,-0.028000,1.251500e-03,1.840000,
1.252000e-03,2.720000,1.252000e-03,-0.020000,1.252000e-03,1.840000,
1.252500e-03,2.720000,1.252500e-03,-0.020000,1.252500e-03,1.840000,
1.253000e-03,2.720000,1.253000e-03,-0.016000,1.253000e-03,1.840000,
1.253500e-03,2.720000,1.253500e-03,-0.008000,1.253500e-03,1.840000,
1.254000e-03,2.720000,1.254000e-03,-0.024000,1.254000e-03,1.840000,
1.254500e-03,2.760000,1.254500e-03,-0.030000,1.254500e-03,1.840000,
1.255000e-03,2.760000,1.255000e-03,-0.024000,1.255000e-03,1.840000,
1.255500e-03,2.720000,1.255500e-03,-0.032000,1.255500e-03,1.840000,
1.256000e-03,2.720000,1.256000e-03,-0.024000,1.256000e-03,1.840000,
1.256500e-03,2.720000,1.256500e-03,-0.024000,1.256500e-03,1.840000,
1.257000e-03,2.720000,1.257000e-03,-0.022000,1.257000e-03,1.840000,
1.257500e-03,2.760000,1.257500e-03,-0.030000,1.257500e-03,1.840000,
1.258000e-03,2.760000,1.258000e-03,-0.030000,1.258000e-03,1.920000,
1.258500e-03,2.720000,1.258500e-03,-0.016000,1.258500e-03,1.840000,
1.259000e-03,2.720000,1.259000e-03,-0.014000,1.259000e-03,1.840000,
1.259500e-03,2.720000,1.259500e-03,-0.016000,1.259500e-03,1.920000,
1.260000e-03,2.720000,1.260000e-03,-0.006000,1.260000e-03,1.840000,
1.260500e-03,2.720000,1.260500e-03,-0.016000,1.260500e-03,1.840000,
